# Exported from Fuse 1.3.0

newmtl Hat
illum 4
Kd 1.00 1.00 1.00
Ka 0.00 0.00 0.00
Tf 1.00 1.00 1.00
Ni 1.00
Ks 1.00 1.00 1.00
map_Kd Spach_Tactico_Hat_diffuse.png
map_Ks Spach_Tactico_Hat_specular.png
bump Spach_Tactico_Hat_normal.png
map_Ns Spach_Tactico_Hat_gloss.png

newmtl Shoes
illum 4
Kd 1.00 1.00 1.00
Ka 0.00 0.00 0.00
Tf 1.00 1.00 1.00
Ni 1.00
Ks 1.00 1.00 1.00
map_Kd Spach_Tactico_Shoes_diffuse.png
map_Ks Spach_Tactico_Shoes_specular.png
bump Spach_Tactico_Shoes_normal.png
map_Ns Spach_Tactico_Shoes_gloss.png

newmtl Top
illum 4
Kd 1.00 1.00 1.00
Ka 0.00 0.00 0.00
Tf 1.00 1.00 1.00
Ni 1.00
Ks 1.00 1.00 1.00
map_Kd Spach_Tactico_Top_diffuse.png
map_Ks Spach_Tactico_Top_specular.png
bump Spach_Tactico_Top_normal.png
map_Ns Spach_Tactico_Top_gloss.png

newmtl Bottom
illum 4
Kd 1.00 1.00 1.00
Ka 0.00 0.00 0.00
Tf 1.00 1.00 1.00
Ni 1.00
Ks 1.00 1.00 1.00
map_Kd Spach_Tactico_Bottom_diffuse.png
map_Ks Spach_Tactico_Bottom_specular.png
bump Spach_Tactico_Bottom_normal.png
map_Ns Spach_Tactico_Bottom_gloss.png

newmtl Body
illum 4
Kd 1.00 1.00 1.00
Ka 0.00 0.00 0.00
Tf 1.00 1.00 1.00
Ni 1.00
Ks 1.00 1.00 1.00
map_Kd Spach_Tactico_Body_diffuse.png
map_Ks Spach_Tactico_Body_specular.png
bump Spach_Tactico_Body_normal.png
map_Ns Spach_Tactico_Body_gloss.png

